The Rose
…
.panel1-rose_x_shift-auto[

```r
seq(0, 4, by = .1) ->
  my_seq

*tibble(x = my_seq)
```
]
 
.panel2-rose_x_shift-auto[

```
# A tibble: 41 x 1
       x
   <dbl>
 1   0  
 2   0.1
 3   0.2
 4   0.3
 5   0.4
 6   0.5
 7   0.6
 8   0.7
 9   0.8
10   0.9
# … with 31 more rows
```
…
.panel1-rose_x_shift-auto[

```r
seq(0, 4, by = .1) ->
  my_seq

tibble(x = my_seq) %>%
* crossing(y = my_seq)
```
]
 
.panel2-rose_x_shift-auto[

```
# A tibble: 1,681 x 2
       x     y
   <dbl> <dbl>
 1     0   0  
 2     0   0.1
 3     0   0.2
 4     0   0.3
 5     0   0.4
 6     0   0.5
 7     0   0.6
 8     0   0.7
 9     0   0.8
10     0   0.9
# … with 1,671 more rows
```
…
---

count: false

.panel1-rose_y_shift-auto[

```r
*tibble(x = my_seq)
```
]
 
.panel2-rose_y_shift-auto[

```
# A tibble: 41 x 1
       x
   <dbl>
 1   0  
 2   0.1
 3   0.2
 4   0.3
 5   0.4
 6   0.5
 7   0.6
 8   0.7
 9   0.8
10   0.9
# … with 31 more rows
```
…
---
count: false

.panel1-rose_y_shift-auto[

```r
tibble(x = my_seq) %>%
* crossing(y = my_seq)
```
]
 
.panel2-rose_y_shift-auto[

```
# A tibble: 1,681 x 2
       x     y
   <dbl> <dbl>
 1     0   0  
 2     0   0.1
 3     0   0.2
 4     0   0.3
 5     0   0.4
 6     0   0.5
 7     0   0.6
 8     0   0.7
 9     0   0.8
10     0   0.9
# … with 1,671 more rows
```
…
.panel1-the_rose_lite-auto[

```r
seq(-4, 4, by = .1) ->
  my_seq

*tibble(x = my_seq)
```
]
 
.panel2-the_rose_lite-auto[

```
# A tibble: 81 x 1
       x
   <dbl>
 1  -4  
 2  -3.9
 3  -3.8
 4  -3.7
 5  -3.6
 6  -3.5
 7  -3.4
 8  -3.3
 9  -3.2
10  -3.1
# … with 71 more rows
```
…
.panel1-the_rose_lite-auto[

```r
seq(-4, 4, by = .1) ->
  my_seq

tibble(x = my_seq) %>%
* crossing(y = my_seq)
```
]
 
.panel2-the_rose_lite-auto[

```
# A tibble: 6,561 x 2
       x     y
   <dbl> <dbl>
 1    -4  -4  
 2    -4  -3.9
 3    -4  -3.8
 4    -4  -3.7
 5    -4  -3.6
 6    -4  -3.5
 7    -4  -3.4
 8    -4  -3.3
 9    -4  -3.2
10    -4  -3.1
# … with 6,551 more rows
```
…
.panel1-the_rose-auto[

```r
seq(-3, 3, by = .01) -> my_seq

*tibble(x = my_seq)
```
]
 
.panel2-the_rose-auto[

```
# A tibble: 601 x 1
       x
   <dbl>
 1 -3   
 2 -2.99
 3 -2.98
 4 -2.97
 5 -2.96
 6 -2.95
 7 -2.94
 8 -2.93
 9 -2.92
10 -2.91
# … with 591 more rows
```
…
.panel1-the_rose-auto[

```r
seq(-3, 3, by = .01) -> my_seq

tibble(x = my_seq) %>%
* crossing(y = my_seq)
```
]
 
.panel2-the_rose-auto[

```
# A tibble: 361,201 x 2
       x     y
   <dbl> <dbl>
 1    -3 -3   
 2    -3 -2.99
 3    -3 -2.98
 4    -3 -2.97
 5    -3 -2.96
 6    -3 -2.95
 7    -3 -2.94
 8    -3 -2.93
 9    -3 -2.92
10    -3 -2.91
# … with 361,191 more rows
```
…
.panel1-stingray-auto[

```r
seq(0,9, by = 0.1) ->
  my_seq

*tibble(x = my_seq)
```
]
 
.panel2-stingray-auto[

```
# A tibble: 91 x 1
       x
   <dbl>
 1   0  
 2   0.1
 3   0.2
 4   0.3
 5   0.4
 6   0.5
 7   0.6
 8   0.7
 9   0.8
10   0.9
# … with 81 more rows
```
…
.panel1-stingray-auto[

```r
seq(0,9, by = 0.1) ->
  my_seq

tibble(x = my_seq) %>%
* crossing(y = my_seq)
```
]
 
.panel2-stingray-auto[

```
# A tibble: 8,281 x 2
       x     y
   <dbl> <dbl>
 1     0   0  
 2     0   0.1
 3     0   0.2
 4     0   0.3
 5     0   0.4
 6     0   0.5
 7     0   0.6
 8     0   0.7
 9     0   0.8
10     0   0.9
# … with 8,271 more rows
```
…
.panel1-stingray_high_res-auto[

```r
seq(0,9, by = 0.025) ->
  my_seq

*tibble(x = my_seq)
```
]
 
.panel2-stingray_high_res-auto[

```
# A tibble: 361 x 1
       x
   <dbl>
 1 0    
 2 0.025
 3 0.05 
 4 0.075
 5 0.1  
 6 0.125
 7 0.15 
 8 0.175
 9 0.2  
10 0.225
# … with 351 more rows
```
…
.panel1-stingray_high_res-auto[

```r
seq(0,9, by = 0.025) ->
  my_seq

tibble(x = my_seq) %>%
* crossing(y = my_seq)
```
]
 
.panel2-stingray_high_res-auto[

```
# A tibble: 130,321 x 2
       x     y
   <dbl> <dbl>
 1     0 0    
 2     0 0.025
 3     0 0.05 
 4     0 0.075
 5     0 0.1  
 6     0 0.125
 7     0 0.15 
 8     0 0.175
 9     0 0.2  
10     0 0.225
# … with 130,311 more rows
```
…
.panel1-rosy-auto[

```r
seq(-12,12, by = 0.04) ->
  my_seq

*tibble(x = my_seq)
```
]
 
.panel2-rosy-auto[

```
# A tibble: 601 x 1
       x
   <dbl>
 1 -12  
 2 -12.0
 3 -11.9
 4 -11.9
 5 -11.8
 6 -11.8
 7 -11.8
 8 -11.7
 9 -11.7
10 -11.6
# … with 591 more rows
```
…
.panel1-rosy-auto[

```r
seq(-12,12, by = 0.04) ->
  my_seq

tibble(x = my_seq) %>%
* crossing(y = my_seq)
```
]
 
.panel2-rosy-auto[

```
# A tibble: 361,201 x 2
       x     y
   <dbl> <dbl>
 1   -12 -12  
 2   -12 -12.0
 3   -12 -11.9
 4   -12 -11.9
 5   -12 -11.8
 6   -12 -11.8
 7   -12 -11.8
 8   -12 -11.7
 9   -12 -11.7
10   -12 -11.6
# … with 361,191 more rows
```
…
Dandalion: One less deconstructed
.panel1-dandelion-auto[

```r
seq(-2,2, by = 0.01) ->
  my_seq

*tibble(x = my_seq)
```
]
 
.panel2-dandelion-auto[

```
# A tibble: 401 x 1
       x
   <dbl>
 1 -2   
 2 -1.99
 3 -1.98
 4 -1.97
 5 -1.96
 6 -1.95
 7 -1.94
 8 -1.93
 9 -1.92
10 -1.91
# … with 391 more rows
```
…
```r
seq(-2,2, by = 0.01) ->
  my_seq

tibble(x = my_seq) %>%
* crossing(y = my_seq)
```
]
 
.panel2-dandelion-auto[

```
# A tibble: 160,801 x 2
       x     y
   <dbl> <dbl>
 1    -2 -2   
 2    -2 -1.99
 3    -2 -1.98
 4    -2 -1.97
 5    -2 -1.96
 6    -2 -1.95
 7    -2 -1.94
 8    -2 -1.93
 9    -2 -1.92
10    -2 -1.91
# … with 160,791 more rows
```
…
