a table
…
bound_rows %>%
* group_by(which_subset, Survived)   # here 3 different outcomes, maybe doing some na subset
```
]
 
.panel2-the_chunk-auto[

```
# A tibble: 3,314 x 6
# Groups:   which_subset, Survived [8]
   Class Sex   Age   Survived child_or_female which_subset
   <fct> <fct> <fct> <fct>    <lgl>           <fct>       
 1 3rd   Male  Child No       TRUE            all         
 2 3rd   Male  Child No       TRUE            all         
 3 3rd   Male  Child No       TRUE            all         
 4 3rd   Male  Child No       TRUE            all         
 5 3rd   Male  Child No       TRUE            all         
 6 3rd   Male  Child No       TRUE            all         
 7 3rd   Male  Child No       TRUE            all         
 8 3rd   Male  Child No       TRUE            all         
 9 3rd   Male  Child No       TRUE            all         
10 3rd   Male  Child No       TRUE            all         
#  with 3,304 more rows
```
…
