basics
…
---
count: false

.panel1-the_chunk-auto[

```r
LETTERS %>%
* tibble(unit = .)
```
]
 
.panel2-the_chunk-auto[

```
# A tibble: 26 x 1
   unit 
   <chr>
 1 A    
 2 B    
 3 C    
 4 D    
 5 E    
 6 F    
 7 G    
 8 H    
 9 I    
10 J    
# … with 16 more rows
```
…
.panel1-the_chunk-auto[

```r
LETTERS %>%
  tibble(unit = .) %>%
* mutate(rank = (1:n())-1)
```
]
 
.panel2-the_chunk-auto[

```
# A tibble: 26 x 2
   unit   rank
   <chr> <dbl>
 1 A         0
 2 B         1
 3 C         2
 4 D         3
 5 E         4
 6 F         5
 7 G         6
 8 H         7
 9 I         8
10 J         9
# … with 16 more rows
```
…
.panel1-the_chunk-auto[

```r
LETTERS %>%
  tibble(unit = .) %>%
  mutate(rank = (1:n())-1) %>%
* mutate(rank_q_4 = rank %/% 4)
```
]
 
.panel2-the_chunk-auto[

```
# A tibble: 26 x 3
   unit   rank rank_q_4
   <chr> <dbl>    <dbl>
 1 A         0        0
 2 B         1        0
 3 C         2        0
 4 D         3        0
 5 E         4        1
 6 F         5        1
 7 G         6        1
 8 H         7        1
 9 I         8        2
10 J         9        2
# … with 16 more rows
```
…
.panel1-the_chunk-auto[

```r
LETTERS %>%
  tibble(unit = .) %>%
  mutate(rank = (1:n())-1) %>%
  mutate(rank_q_4 = rank %/% 4) %>%
* mutate(rank_r_4 = rank %% 4)
```
]
 
.panel2-the_chunk-auto[

```
# A tibble: 26 x 4
   unit   rank rank_q_4 rank_r_4
   <chr> <dbl>    <dbl>    <dbl>
 1 A         0        0        0
 2 B         1        0        1
 3 C         2        0        2
 4 D         3        0        3
 5 E         4        1        0
 6 F         5        1        1
 7 G         6        1        2
 8 H         7        1        3
 9 I         8        2        0
10 J         9        2        1
# … with 16 more rows
```
…
