diamond
…
.panel1-the_chunk-auto[

```r
offset <- .15
set.seed(12342)
*tibble(period = 1:22)
```
]
 
.panel2-the_chunk-auto[

```
# A tibble: 22 x 1
   period
    <int>
 1      1
 2      2
 3      3
 4      4
 5      5
 6      6
 7      7
 8      8
 9      9
10     10
# … with 12 more rows
```
…
.panel1-the_chunk-auto[

```r
offset <- .15
set.seed(12342)
tibble(period = 1:22) %>%
* crossing(tibble(unit = LETTERS[1:6]))
```
]
 
.panel2-the_chunk-auto[

```
# A tibble: 132 x 2
   period unit 
    <int> <chr>
 1      1 A    
 2      1 B    
 3      1 C    
 4      1 D    
 5      1 E    
 6      1 F    
 7      2 A    
 8      2 B    
 9      2 C    
10      2 D    
# … with 122 more rows
```
…
.panel1-the_chunk-auto[

```r
offset <- .15
set.seed(12342)
tibble(period = 1:22) %>%
  crossing(tibble(unit = LETTERS[1:6])) %>%
* sample_n(60, replace = T)
```
]
 
.panel2-the_chunk-auto[

```
# A tibble: 60 x 2
   period unit 
    <int> <chr>
 1     20 D    
 2      7 A    
 3     15 F    
 4      7 A    
 5      7 A    
 6      8 D    
 7     21 D    
 8     21 E    
 9      4 C    
10      3 B    
# … with 50 more rows
```
…
```r
offset <- .15
set.seed(12342)
tibble(period = 1:22) %>%
  crossing(tibble(unit = LETTERS[1:6])) %>%
  sample_n(60, replace = T) %>%
* count(unit, period)
```
]
 
.panel2-the_chunk-auto[

```
# A tibble: 50 x 3
   unit  period     n
   <chr>  <int> <int>
 1 A          2     1
 2 A          3     1
 3 A          5     1
 4 A          7     3
 5 A          9     1
 6 A         19     1
 7 B          3     1
 8 B          4     1
 9 B          8     2
10 B         14     1
# … with 40 more rows
```
…
```r
offset <- .15
set.seed(12342)
tibble(period = 1:22) %>%
  crossing(tibble(unit = LETTERS[1:6])) %>%
  sample_n(60, replace = T) %>%
  count(unit, period) %>%
* mutate(unit_numeric = as.numeric(as.factor(unit)))
```
]
 
.panel2-the_chunk-auto[

```
# A tibble: 50 x 4
   unit  period     n unit_numeric
   <chr>  <int> <int>        <dbl>
 1 A          2     1            1
 2 A          3     1            1
 3 A          5     1            1
 4 A          7     3            1
 5 A          9     1            1
 6 A         19     1            1
 7 B          3     1            2
 8 B          4     1            2
 9 B          8     2            2
10 B         14     1            2
# … with 40 more rows
```
…
.panel2-the_chunk-auto[

```
# A tibble: 50 x 5
   unit  period     n unit_numeric unit_offset
   <chr>  <int> <int>        <dbl>       <dbl>
 1 A          2     1            1           0
 2 A          3     1            1           1
 3 A          5     1            1           1
 4 A          7     3            1           1
 5 A          9     1            1           1
 6 A         19     1            1           1
 7 B          3     1            2           1
 8 B          4     1            2           0
 9 B          8     2            2           0
10 B         14     1            2           0
# … with 40 more rows
```
…
.panel2-the_chunk-auto[

```
# A tibble: 50 x 6
   unit  period     n unit_numeric unit_offset unit_numeric_plus
   <chr>  <int> <int>        <dbl>       <dbl>             <dbl>
 1 A          2     1            1           0             0.925
 2 A          3     1            1           1             1.08 
 3 A          5     1            1           1             1.08 
 4 A          7     3            1           1             1.08 
 5 A          9     1            1           1             1.08 
 6 A         19     1            1           1             1.08 
 7 B          3     1            2           1             2.07 
 8 B          4     1            2           0             1.92 
 9 B          8     2            2           0             1.92 
10 B         14     1            2           0             1.92 
# … with 40 more rows
```
…
