nut
…
.panel1-the_chunk-auto[

```r
offset <- .15
set.seed(12342)
c(LETTERS, letters, 1:26) %>%
* tibble(unit = .)
```
]
 
.panel2-the_chunk-auto[

```
# A tibble: 78 x 1
   unit 
   <chr>
 1 A    
 2 B    
 3 C    
 4 D    
 5 E    
 6 F    
 7 G    
 8 H    
 9 I    
10 J    
# … with 68 more rows
```
…
.panel1-the_chunk-auto[

```r
offset <- .15
set.seed(12342)
c(LETTERS, letters, 1:26) %>%
  tibble(unit = .) %>%
* mutate(unit = fct_inorder(unit))
```
]
 
.panel2-the_chunk-auto[

```
# A tibble: 78 x 1
   unit 
   <fct>
 1 A    
 2 B    
 3 C    
 4 D    
 5 E    
 6 F    
 7 G    
 8 H    
 9 I    
10 J    
# … with 68 more rows
```
…
```r
offset <- .15
set.seed(12342)
c(LETTERS, letters, 1:26) %>%
  tibble(unit = .) %>%
  mutate(unit = fct_inorder(unit)) %>%
* mutate(rank = (1:n())-1)
```
]
 
.panel2-the_chunk-auto[

```
# A tibble: 78 x 2
   unit   rank
   <fct> <dbl>
 1 A         0
 2 B         1
 3 C         2
 4 D         3
 5 E         4
 6 F         5
 7 G         6
 8 H         7
 9 I         8
10 J         9
# … with 68 more rows
```
…
```r
offset <- .15
set.seed(12342)
c(LETTERS, letters, 1:26) %>%
  tibble(unit = .) %>%
  mutate(unit = fct_inorder(unit)) %>%
  mutate(rank = (1:n())-1) %>%
* mutate(rank_q_4 = rank %/% 8)
```
]
 
.panel2-the_chunk-auto[

```
# A tibble: 78 x 3
   unit   rank rank_q_4
   <fct> <dbl>    <dbl>
 1 A         0        0
 2 B         1        0
 3 C         2        0
 4 D         3        0
 5 E         4        0
 6 F         5        0
 7 G         6        0
 8 H         7        0
 9 I         8        1
10 J         9        1
# … with 68 more rows
```
…
.panel2-the_chunk-auto[

```
# A tibble: 78 x 4
   unit   rank rank_q_4 rank_r_4
   <fct> <dbl>    <dbl>    <dbl>
 1 A         0        0        0
 2 B         1        0        1
 3 C         2        0        2
 4 D         3        0        3
 5 E         4        0        4
 6 F         5        0        5
 7 G         6        0        6
 8 H         7        0        7
 9 I         8        1        0
10 J         9        1        1
# … with 68 more rows
```
…
